{
	"SNT (2nde)" : {
		"thèmes": {
			"Notions transversales de programmation": {
				"dates": {},
				"contenus": {
					"Affectations, variables, Séquences, Instructions conditionnelles, Boucles bornées et non bornées, Définitions et appels de fonctions": {
						"capacités attendues": {
							"Écrire  et  développer  des  programmes  pour  répondre  à  des problèmes    et    modéliser    des    phénomènes    physiques, économiques et sociaux": "Au  moment  de  la  conception  de  ce programme, le langage choisi est Python version 3 (ou supérieure)."
						}
					}
				},
				"questions diverses": {}
			},
			"Internet": {
				"dates": {
					"1969": "creation d'Arpanet ; réseau expérimental permettant de relier quatre noeuds situés dans 4 universités (US)",
					"1973": "premiere publication du protocole tcp-ip",
					"1983": "Arpanet integre le protocole tcp-ip, ça propulse le réseau, on peut parler de naissance d'internet bien que le terme internet existait déjà à l'époque",
					"1990": "creation du web par Tim Berners-Lee"
				},
				"contenus": {
					"Protocole TCP/IP ; paquets, routage des paquets": {
						"capacités attendues": {
							"Distinguer le role des protocles TCP et IP": "",
							"Caractériser le principe de routage et ses limites": "",
							"Distinguer la fiabilité de transmission et l'absence de garanti temporelle": ""
						}
					},
					"Adresses symboliques et serveurs DNS": {
						"capacités attendues": {
							"Sur des exemples réels, retrouver une adresse IP à partir d'une adresse symbolique et inversement": ""
						}
					},
					"Reseaux Pair-à-pair": {
						"capacités attendues": {
							"Décrire l'intéret des réseaux Pair-à-pair ainsi que les usages illicites qu'on peut faire": ""
						}
					},
					"Indépendance de l'internet par rapport au réseau physique": {
						"capacités attendues": {
							"Caractériser qques types de réseaux physiques ; obsolètes ou actuels, rapides ou lents, filiaire ou non": "",
							"Caractérister l'ordre de grandeur du trafic de données sur internet et son évolution": ""
						}
					}
				},
				"questions diverses": {
					"Quelle est la différence entre Internet et le Web ?": "blablablaa reponse"
				}
			},
			"Le Web": {
				"dates": {
					"1965": "invention et programmation du concept d’hypertexte par Ted Nelson",
					"1989": "naissance au CERN par Tim Berners Lee",
					"1993": "mise dans le domaine public, disponibilité du premier navigateur Mosaic",
					"1995": "mise  à  disposition  de  technologies  pour  le  développement  de  site Web interactif (langage JavaScript) et dynamique (langage PHP)",
					"2001": "standardisation des pages grâce au DOM (Document Object Model)",
					"2010": "mise à disposition de technologies pour le développement d’applications sur mobiles"
				},
				"contenus": {
					"Notions juridiques": {
						"capacités attendues": {
							"Connaitre certaines notions juridiques ; licence, droit d'auteur, droit d'usage, valeur d'un bien)": ""
						}
					},
					"Hypertexte": {
						"capacités attendues": {
							"Maitriser les renvois d'un texte à différents contenus": ""
						}
					},
					"Langages HTML et CSS": {
						"capacités attendues": {
							"Distinguer ce qui relève du contenu d'une page et de son style de présentation": "",
							"Étudier et modifier une page HTML simple": ""
						}
					},
					"URL": {
						"capacités attendues": {
							"Décomposer l'URL d'une page": "",
							"Reconnaître les pages sécurisées": ""
						}
					},
					"Reauête HTTP": {
						"capacités attendues": {
							"Décomposer le contenu d'une requête HTTP et identifier les paramètres passés": ""
						}
					},
					"Modèle client/serveur": {
						"capacités attendues": {
							"Inspecter le code d'une page hébergée par un serveur et distinguer ce qui est exécuter par le client et le serveur": ""
						}
					},
					"Moteur de recherche ; principes et usages": {
						"capacités attendues": {
							"Mener une analyse critique des résultats fournis par un moteur de recherche": "",
							"Comprendre les enjeux de la publication d'informations": ""
						}
					},
					"Paramètres de sécurité d'nu navigateur": {
						"capacités attendues": {
							"Maîtriser les réglages les plus importants concernant la gestion des cookies, la sécurité et la confidentialité d’un navigateur": "",
							"Sécuriser sa navigation en ligne et analyser les pages et fichiers.": ""
						}
					}
				},
				"questions diverses": {
					"Quelle est la différence entre Internet et le Web ?": "blablablaa reponse"
				}
			},
			"Les réseaux sociaux": {
				"dates": {
					"1995": "Classmates  est  l’un  des  premiers  réseaux  sociaux  qui  permettent  aux étudiants de rester en relation",
					"2003": "apparition  de  Myspace,  aujourd’hui  en  perte  de  vitesse,  et  de  LinkedIn (racheté depuis par Microsoft), à vocation professionnelle",
					"2004": "apparition de Facebook, d’abord réservé aux étudiants de l’université Harvard, puis ouvert au grand public en 2006",
					"2006": "apparition de Twitter, qui permet l’échange de courts messages, limités au départ à 140 puis à 280 caractères (on parle de microblogage)",
					"2009": "lancement  de  la  messagerie  instantanée  WhatsApp  (rachetée depuis  par Facebook)  qui  se  substitue  à  l’utilisation  des  SMS  et  MMS  chez  beaucoup d’utilisateurs",
					"2010": "arrivée d’Instagram (racheté depuis par Facebook), qui permet le partage de photos et de vidéos",
					"2011": "début de Snapchat qui permet, sur plateformes mobiles, le partage de photos et de vidéos, avec une limitation de durée",
					"2018": "on estime à 3,2 milliards le nombre d’utilisateurs actifs des réseaux sociaux"
				},
				"contenus": {
					"Identité numérique, e-réputation, identification, authentification": {
						"capacités attendues": {
							"Connaitre les principaux concepts liés à l'usage des réseaux sociaux": ""
						}
					},
					"Réseaux sociaux existants": {
						"capacités attendues": {
							"Distinguer plusieurs réseaux sociaux selon leurs caractéristiques, y compris un ordre de grandeur de leurs nombres d’abonnés": "",
							"Paramétrer des abonnements pour assurer la confidentialité de données personnelles": ""
						}
					},
					"Modeles économiques des réseaux sociaux ": {
						"capacités attendues": {
							"identifier les sources de revenus des entreprises de réseautage social.": ""
						}
					},
					"Rayon, diamètre et centre d’un graphe": {
						"capacités attendues": {
							"Déterminer ces caractéristiques sur des graphes simples": ""
						}
					},
					"Notion de « petit monde » Expérience de Milgram": {
						"capacités attendues": {
							"Décrire comment l’information présentée par les réseaux sociaux est conditionnée par le choix préalable de ses amis.": ""
						}
					},
					"Cyberviolence": {
						"capacités attendues": {
							"Connaître les dispositions de l’article 222-33-2-2 du code pénal.": "",
							"Connaître les différentes formes de cyberviolence (harcèlement, discrimination, sexting...) et les ressources disponibles pour lutter contre la cyberviolence": ""
						}
					}
				},
				"questions diverses": {}
			},
			"Les données structurés et leur traitement ": {
				"dates": {
					"1930": "utilisation des cartes perforées, premier support de stockage de données",
					"1956": "invention du  disque  dur  permettant  de  stocker  de  plus  grandes  quantités  de données, avec un accès de plus en plus rapide",
					"1970": "invention   du   modèle   relationnel   (E.L. Codd)   pour   la   structuration   et l’indexation des bases de données",
					"1979": "création du premier tableur, VisiCalc",
					"2009": "Open Government Initiative du président Obama",
					"2013": "charte du G8 pour l’ouverture des données publiques"
				},
				"contenus": {
					"Données": {
						"capacités attendues": {
							"Définir une donnée personnelle": "",
							"identifier les principaux formats et représentations de données.": ""
						}
					},
					"Données structurées": {
						"capacités attendues": {
							"identifier les différents descripteurs d’un objet": "",
							"Distinguer la valeur d’une donnée de son descripteur": "",
							"Utiliser un site de données ouvertes, pour sélectionner et récupérer des données": ""
						}
					},
					"Traitement de données structurées": {
						"capacités attendues": {
							"Réaliser des opérations de recherche, filtre, tri ou calcul sur une ou plusieurs tables": ""
						}
					},
					"Métadonnées": {
						"capacités attendues": {
							"Retrouver les métadonnées d’un fichier personnel": ""
						}
					},
					"Données dans le nuage": {
						"capacités attendues": {
							"Utiliser un support de stockage dans le nuage": "",
							"Partager des fichiers, paramétrer des modes de synchronisation.": "",
							"Identifier les principales causes de la consommation énergétique des centres de données ainsi que leur ordre de grandeur": ""
						}
					}
				},
				"questions diverses": {}
			},
			"Localisation, cartographie et mobilité": {
				"dates": {
					"années 1960": "développpement de la techno GPS par l'armée Américaine",
					"1978": "lancement des 4 premiers satellites du systeme GPS",
					"1983": "ouverture de la techno vers le civile suite au crash d'un avion (contexte guerre froide vs Soviet)",
					"1995": "le nbr de satellites permet de rendre le GPS opérationel en permanence sur l'ensemble de la planète",
					"2003": "Début du programme Galileo avec signature d'un accord entre l'UE et l'agence spatiale européenne",
					"2004": "lancement du service de cartographie de google map",
					"2006": "Création de la fondation OPenStreetMap ayant pour but de constituer une bdd géographique libre du monde",
					"2014": "Lancement du premier satellite du programme Galileo",
					"2017": "Premiers services Galileo opérationels",
					"2018": "200 milions d'utilisateurs de Galileo"
				},
				"contenus": {
					"GPS, Galileo": {
						"capacités attendues": {
							"Décrire le principe de fonctionnement de la géolocalisation": ""
						}
					},
					"Cartes numériques": {
						"capacités attendues": {
							"Identifier les différentes couches d’information de GeoPortail pour extraire différents types de données": "",
							"Contribuer à OpenStreetMap de façon collaborative": ""
						}
					},
					"Protocole NMEA 0183": {
						"capacités attendues": {
							"Décoder une trame NMEA pour trouver des coordonnées géographiques": ""
						}
					},
					"Calculs d'itinéraires": {
						"capacités attendues": {
							"Utiliser un logiciel pour calculer un itinéraire": "",
							"Représenter un calcul d’itinéraire comme un problème sur un graphe.": ""
						}
					},
					"Confidentialité": {
						"capacités attendues": {
							"Régler les paramètres de confidentialité d’un téléphone pour partager ou non sa position": ""
						}
					}
				},
				"questions diverses": {
					"Comment tester le système Galileo ?": "blablalalalalleqw"
				}
			},
			"Informatique embarquée et objets connectés": {
				"dates": {
					"1967": "premier système embarqué de guidage lors de la mission lunaire Apollo",
					"1971": "premier processeur produit par Intel",
					"1984": "sortie  de  l’Airbus 320,  premier  avion  équipé  de  commandes  électriques informatisées",
					"1998": "mise  en  service  du  métro  informatisé  sans  conducteur  Météor  (ligne 14  à Paris)",
					"1999": "introduction de l’expression «internet des objets» par Kevin Ashton",
					"2007": "arrivée du smartphone"
				},
				"contenus": {
					"Systèmes informatiques embarqués": {
						"capacités attendues": {
							"Identifier des algorithmes de contrôle des comportements physiques à travers les données des capteurs, l’IHM et les actions des actionneurs dans des systèmes courants.": ""
						}
					},
					"Interface Homme Machine (IHM)": {
						"capacités attendues": {
							"Réaliser une IHM simple d’un objet connecté.": ""
						}
					},
					"Commande d’un actionneur, acquisition des données d’un capteur": {
						"capacités attendues": {
							"Écrire des programmes simples d’acquisition de données ou de commande d’un actionneur": ""
						}
					}
				},
				"questions diverses": {
					"A combien de nombre d'objets connectés est estimé en 2020 ?": "environ 50 milliard"
				}
			},
			"La photographie numérique": {
				"dates": {
					"1826": "naissance de la photographie argentique",
					"1900": "photographie  en  couleurs.  Après  la seconde guerre  mondiale,  généralisation du format 24x36 et de la visée reflex",
					"1969": "arrivée des premiers capteurs CCD (Charge Coupled Device)",
					"1975": "apparition des premiers appareils numériques",
					"2007": "arrivée du smartphone"
				},
				"contenus": {
					"Photosites, pixels, résolution (du capteur, de l’image), profondeur de couleur": {
						"capacités attendues": {
							"Distinguer les photosites du capteur et les pixels de l’image en comparant les résolutions du capteur et de l’image selon les réglages de l’appareil": ""
						}
					},
					"Métadonnées EXIF": {
						"capacités attendues": {
							"Retrouver les métadonnées d’une photographie.": ""
						}
					},
					"Traitement d'image": {
						"capacités attendues": {
							"Traiter par programme une image pour la transformer en agissant sur les trois composantes de ses pixels.": ""
						}
					},
					"Rôle des algorithmes dans les appareils photo numérique": {
						"capacités attendues": {
							"Expliciter des algorithmes associés à la prise de vue": "",
							"Identifier les étapes de la construction de l’image finale": ""
						}
					}
				},
				"questions diverses": {}
			}
		}
	},
	"NSI (1ere)" : {
		"thèmes": {
			"Histoire de l’informatique": {
				"dates": {},
				"contenus": {
					"Événements clés de l’histoire de l’informatique": {
						"capacités attendues": {
							"Situer dans le temps les principaux événements de l’histoire de l’informatique et leurs protagonistes.": "Ces repères historiques seront construits au fur et à mesure de la présentation des concepts et techniques"
						}
					}
				},
				"questions diverses": {}
			},
			"Représentation des données : types et valeurs de bases": {
				"dates": {},
				"contenus": {
					"Écriture d’un entier positif dans une base b⩾2": {
						"capacités attendues": {
							"Passer de la représentation d'une base à une autre": "bases 2, 10, 16 privilégiées"
						}
					},
					"Représentation binaire d’un entier relatif": {
						"capacités attendues": {
							"Évaluer le nombre de bits nécessaires à l’écriture en base2 d’un entier, de la somme ou du produit de deux nombres entiers": "",
							"Utiliser le complément à 2": ""
						}
					},
					"Représentation approximative des nombres réels: notion de nombre flottant": {
						"capacités attendues": {
							"Calculer sur quelques exemples la représentation de nombres réels: 0.1, 0.25 ou 1/3.": "pour les élèves : survoler le IEEE-754"
						}
					},
					"Valeurs booléennes: 0, 1. Opérateurs booléens: and, or, not.Expressions booléennes": {
						"capacités attendues": {
							"Dresser la table d’une expression booléenne.": ""
						}
					},
					"Représentation d’un texte en machine. Exemples des encodages ASCII, ISO-8859-1, Unicode": {
						"capacités attendues": {
							"Identifier l’intérêt des différents systèmes d’encodage": "",
							"Convertir un fichier texte dans différents formats d’encodage.": ""
						}
					}
				},
				"questions diverses": {}
			},
			"Représentation des données: types construits": {
				"dates": {},
				"contenus": {
					"p-uplets. p-uplets nommés": {
						"capacités attendues": {
							"Écrire une fonction renvoyant un p-uplet de valeurs": ""
						}
					},
					"Tableau indexé, tableau donné en compréhension": {
						"capacités attendues": {
							"Lire et modifier les éléments d’un tableau grâce à leurs index.": "",
							"Construire un tableau par compréhension": "",
							"Utiliser des tableaux de tableaux pour représenter des matrices: notation a[i][j]": "",
							"Itérer sur les éléments d’un tableau": ""
						}
					},
					"Dictionnaires par clés et valeurs": {
						"capacités attendues": {
							"Construire une entrée de dictionnaire": "",
							"Itérer sur les éléments d’un dictionnaire": ""
						}
					}
				},
				"questions diverses": {}
			},
			"Traitement de données en table": {
				"dates": {},
				"contenus": {
					"Indexation de tables": {
						"capacités attendues": {
							"Importer une table depuis un fichier texte tabulé ou un fichier CSV.": ""
						}
					},
					"Recherche dans une table": {
						"capacités attendues": {
							"Rechercher les lignes d’une table vérifiant des critères exprimés en logique propositionnelle.": ""
						}
					},
					"Tri d'une table": {
						"capacités attendues": {
							"Trier une table suivant une colonne": ""
						}
					},
					"Fusion de tables": {
						"capacités attendues": {
							"Construire une nouvelle table en combinant les données de deux tables": ""
						}
					}
				},
				"questions diverses": {}
			},
			"Interactions entre l’homme et la machine sur le Web": {
				"dates": {},
				"contenus": {
					"Modalités de l’interaction entre l’homme et la machine. Événements": {
						"capacités attendues": {
							"Identifier les différents composants graphiques permettant d’interagir avec une application Web. ": "",
							"Identifier les événements que les fonctions associées aux différents composants graphiques sont capables de traiter.": ""
						}
					},
					"Interaction avec l’utilisateur dans une page Web": {
						"capacités attendues": {
							"Analyser et modifier les méthodes exécutées lors d’un clic sur un bouton d’une page Web.": ""
						}
					},
					"Interaction client-serveur. Requêtes HTTP, réponses du serveur": {
						"capacités attendues": {
							"Distinguer ce qui est exécuté sur le client ou sur le serveur et dans quel ordre": "",
							"Distinguer ce qui est mémorisé dans le client et retransmis au serveur": "",
							"Reconnaître quand et pourquoi la transmission est chiffrée.": ""
						}
					},
					"Formulaire d'une page Web": {
						"capacités attendues": {
							"Analyser le fonctionnement d’un formulaire simple.": "",
							"Distinguer les transmissions de paramètres par les requêtes POST ou GET.": ""
						}
					}
				},
				"questions diverses": {}
			},
			"Architectures matérielles et systèmes d’exploitation": {
				"dates": {},
				"contenus": {
					"Modèle d’architecture séquentielle (vonNeumann)": {
						"capacités attendues": {
							"Distinguer les rôles et les caractéristiques des différents constituants d’une machine": "",
							"Dérouler l’exécution d’une séquence d’instructions simples du type langage machine.": ""
						}
					},
					"Transmission de données dans un réseau. Protocoles de communication. Architecture d’un réseau": {
						"capacités attendues": {
							"Mettre en évidence l’intérêt du découpage des données en paquets et de leur encapsulation": "",
							"Dérouler le fonctionnement d’un protocole simple de récupération de perte de paquets (bit alterné).": "",
							"Simuler ou mettre en œuvre un réseau": ""
						}
					},
					"Systèmes d'exploitation": {
						"capacités attendues": {
							"Identifier les fonctions d’un système d’exploitation. ": "Les différences entre systèmes d’exploitation libres et propriétaires sont évoquées. Il ne s’agit pas d’une étude théorique des systèmes d’exploitation",
							"Utiliser les commandes de base en ligne de commande": "les élèves utilisent un système d’exploitation libre",
							"Gérer les droits et permissions d’accès aux fichiers": ""
						}
					},
					"Périphériques d’entrée et de sortie Interface Homme-Machine (IHM)": {
						"capacités attendues": {
							"Identifier le rôle des capteurs et actionneurs.": "",
							"Réaliser par programmation une IHM répondant à un cahier des charges donné.": ""
						}
					}
				},
				"questions diverses": {}
			},
			"Langages et programmation": {
				"dates": {},
				"contenus": {
					"Constructions élémentaires": {
						"capacités attendues": {
							"Mettre en évidence un corpus de constructions élémentaires.": "comm"
						}
					},
					"Diversité et unité des langages de programmation": {
						"capacités attendues": {
							"Repérer, dans un nouveau langage de programmation, les traits communs et les traits particuliers à ce langage.": ""
						}
					},
					"Spécification": {
						"capacités attendues": {
							"Prototyper une fonction": "",
							"Décrire les préconditions sur les arguments": "",
							"Décrire des postconditions sur les résultats": ""
						}
					},
					"Mise au point de programme": {
						"capacités attendues": {
							"Utiliser des jeux de tests": ""
						}
					},
					"Utilisattion de bibliothèques": {
						"capacités attendues": {
							"Utiliser la documentation d’une bibliothèque": ""
						}
					}
				},
				"questions diverses": {}
			},
			"Algorithmique": {
				"dates": {},
				"contenus": {
					"Parcours séquentiel d’un tableau": {
						"capacités attendues": {
							"Écrire un algorithme de recherche d’une occurrence sur des valeurs de type quelconque": "",
							"Écrire un algorithme de recherche d’un extremum, de calcul d’une moyenne": ""
						}
					},
					"Tris par insertion, par sélection": {
						"capacités attendues": {
							"Écrire un algorithme de tri": "",
							"Décrire un invariant de boucle qui prouve la correction des tris par insertion, par sélection": ""
						}
					},
					"Algorithme des k plus proches voisins": {
						"capacités attendues": {
							"Écrire un algorithme qui prédit la classe d’un élément en fonction de la classe majoritaire de ses k plus proches voisins.": ""
						}
					},
					"Recherche dichotomique dans un tableau trié": {
						"capacités attendues": {
							"Montrer la terminaison de la recherche dichotomique à l’aide d’un variant de boucle.": ""
						}
					},
					"Algorithmes gloutons": {
						"capacités attendues": {
							"Résoudre un problème grâce à un algorithme glouton": ""
						}
					}
				},
				"questions diverses": {}
			}
		}
	},
	"NSI (Term)" : {
		"thèmes": {
			"Histoire de l’informatique": {
				"dates": {},
				"contenus": {
					"Événements clés de l’histoire de l’informatique": {
						"capacités attendues": {
							"Situer dans le temps les principaux événements de l’histoire de l’informatique et leurs protagonistes. Identifier l’évolution des rôles relatifs des logiciels et des matériels.": "Ces repères historiques seront construits au fur et à mesure de la présentation des concepts et techniques. Ces repères viennent compléter ceux qui ont été introduits en première."
						}
					}
				},
				"questions diverses": {}
			},
			"Structures de données": {
				"dates": {},
				"contenus": {
					"Structures de données, interface et implémentation": {
						"capacités attendues": {
							"Spécifier une structure de données par son interface": "",
							"Distinguer interface et implémentation": "",
							"Écrire plusieurs implémentations d’une même structure de données.": ""
						}
					},
					"Vocabulaire de la programmation objet: classes, attributs, méthodes, objets.": {
						"capacités attendues": {
							"Écrire la définition d’une classe.": "",
							"Accéder aux attributs et méthodes d’une classe.": ""
						}
					},
					"Lstes, piles, files: structures linéaires. Dictionnaires, index et clé.": {
						"capacités attendues": {
							"Distinguer des structures par le jeu des méthodes qui les caractérisent.": "",
							"Choisir une structure de données adaptée à la situation à modéliser": "",
							"Distinguer la recherche d’une valeur dans une liste et dans un dictionnaire": ""
						}
					},
					"Arbres: structures hiérarchiques. Arbres binaires: nœuds, racines, feuilles, sous-arbres gauches, sous-arbres droits.": {
						"capacités attendues": {
							"Identifier des situations nécessitant une structure de données arborescente": "",
							"Évaluer quelques mesures des arbres binaires (taille, encadrement de la hauteur, etc.).": ""
						}
					},
					"Graphes: structures relationnelles. Sommets, arcs, arêtes, graphes orientés ou non orientés.": {
						"capacités attendues": {
							"Modéliser des situations sous forme de graphes.": "",
							"Écrire les implémentations correspondantes d’un graphe: matrice d’adjacence, liste de successeurs/de prédécesseurs.": "",
							"Passer d’une représentation à une autre.": ""
						}
					}
				},
				"questions diverses": {}
			},
			"Bases de données": {
				"dates": {},
				"contenus": {
					"Modèle relationnel: relation, attribut, domaine, clef primaire, clef étrangère, schéma relationnel.": {
						"capacités attendues": {
							"Identifier les concepts définissant le modèle relationnel": ""
						}
					},
					"Base de données relationnelle": {
						"capacités attendues": {
							"Savoir distinguer la structure d’une base de données de son contenu": "",
							"Repérer des anomalies dans le schéma d’une base de données": ""
						}
					},
					"Système de gestion de bases de données relationnelles.": {
						"capacités attendues": {
							"Identifier les services rendus par un système de gestion de bases de données relationnelles: persistance des données, gestion des accès concurrents, efficacité de traitement des requêtes, sécurisation des accès.": ""
						}
					},
					"Langage SQL: requêtes d’interrogation et de mise à jour d’une base de données.": {
						"capacités attendues": {
							"Identifier les composants d’une requête": "",
							"Construire des requêtes d’interrogation à l’aide des clauses du langage SQL: SELECT, FROM, WHERE, JOIN.": "",
							"Construire des requêtes d’insertion et de mise à jour à l’aide de: UPDATE, INSERT, DELETE": ""
						}
					}
				},
				"questions diverses": {}
			},
			"Architectures matérielles, systèmes d’exploitation et réseaux": {
				"dates": {},
				"contenus": {
					"Composants intégrés d’un système sur puce.": {
						"capacités attendues": {
							"Identifier les principaux composants sur un schéma de circuit et les avantages de leur intégration en termes de vitesse et de consommation": ""
						}
					},
					"Gestion des processus et des ressources par un système d’exploitation.": {
						"capacités attendues": {
							"Décrire la création d’un processus, l’ordonnancement de plusieurs processus par le système.": "",
							"Mettre en évidence le risque de l’interblocage (deadlock)": ""
						}
					},
					"Protocoles de routage.": {
						"capacités attendues": {
							"Identifier, suivant le protocole de routage utilisé, la route empruntée par un paquet": ""
						}
					},
					"Sécurisation des communications.": {
						"capacités attendues": {
							"Décrire les principes de chiffrement symétrique (clef partagée) et asymétrique (avec clef privée/clef publique)": "",
							"Décrire l’échange d’une clef symétrique en utilisant un protocole asymétrique pour sécuriser une communication HTTPS": ""
						}
					}
				},
				"questions diverses": {}
			},
			"Langages et programmation": {
				"dates": {},
				"contenus": {
					"Notion de programme en tant que donnée.Calculabilité, décidabilité.": {
						"capacités attendues": {
							"Comprendre que tout programme est aussi une donnée": "",
							"Comprendre que la calculabilité ne dépend pas du langage de programmation utilisé.": "",
							"Montrer, sans formalisme théorique, que le problème de l’arrêt est indécidable.": ""
						}
					},
					"Récursivité": {
						"capacités attendues": {
							"Écrire un programme récursif.\nAnalyser le fonctionnement d’un programme récursif": ""
						}
					},
					"Modularité": {
						"capacités attendues": {
							"Utiliser des API (Application ProgrammingInterface) ou des bibliothèques": "",
							"Exploiter leur documentation. Créer des modules simples et les documenter": ""
						}
					},
					"Paradigmes de programmation": {
						"capacités attendues": {
							"Distinguer sur des exemples les paradigmes impératif, fonctionnel et objet.": "",
							"Choisir le paradigme de programmation selon le champ d’application d’un programme.": ""
						}
					},
					"Mise au point des programmes. Gestion des bugs": {
						"capacités attendues": {
							"Dans la pratique de la programmation, savoir répondre aux causes typiques de bugs: problèmes liés au typage, effets de bord non désirés, débordements dans les tableaux, instruction conditionnelle non exhaustive, choix des inégalités, comparaisons et calculs entre flottants, mauvais nommage des variables, etc": ""
						}
					}
				},
				"questions diverses": {}
			},
			"Algorithmique": {
				"dates": {},
				"contenus": {
					"Agorithmes sur les arbres binaires et sur les arbres binaires de recherche.": {
						"capacités attendues": {
							"Calculer la taille et la hauteur d’un arbre": "",
							"Parcourir un arbre de différentes façons (ordres infixe, préfixe ou suffixe ; ordre en largeur d’abord).": "",
							"Rechercher une clé dans un arbre de recherche, insérer une clé": ""
						}
					},
					"Algorithmes sur les graphes.": {
						"capacités attendues": {
							"Parcourir un graphe en profondeur d’abord, en largeur d’abord.": "",
							"Repérer la présence d’un cycle dans un graphe.": "",
							"Chercher un chemin dans un graphe": ""
						}
					},
					"Méthode «diviser pour régner».": {
						"capacités attendues": {
							"Écrire un algorithme utilisant la méthode «diviser pour régner».": ""
						}
					},
					"Programmation dynamique.": {
						"capacités attendues": {
							"Utiliser la programmation dynamique pour écrire un algorithme.": ""
						}
					},
					"Recherche textuelle": {
						"capacités attendues": {
							"Étudier l’algorithme de Boyer-Moore pour la recherche d’un motif dans un texte": ""
						}
					}
				},
				"questions diverses": {}
			}
		}
	}
}
